(footprint "USB_C_Receptacle_GCT_USB4085"
	(version 20240108)
	(generator "pcbnew")
	(generator_version "8.0")
	(layer "F.Cu")
	(descr "USB 2.0 Type C Receptacle, https://gct.co/Files/Drawings/USB4085.pdf")
	(tags "USB Type-C Receptacle Through-hole Right angle")
	(property "Reference" "REF**"
		(at 2.975 -1.8 0)
		(layer "F.SilkS")
		(uuid "59110c11-6f9e-4b43-85a7-3f19345860a9")
		(effects
			(font
				(size 1 1)
				(thickness 0.15)
			)
		)
	)
	(property "Value" "USB_C_Receptacle_GCT_USB4085"
		(at 2.975 9.925 0)
		(layer "F.Fab")
		(uuid "00ab8c3f-f9c4-43a6-b2b8-0a2c9ea1efae")
		(effects
			(font
				(size 1 1)
				(thickness 0.15)
			)
		)
	)
	(property "Footprint" ""
		(at 0 0 0)
		(unlocked yes)
		(layer "F.Fab")
		(hide yes)
		(uuid "bb0655ae-15b5-4283-ade7-2e43fcae185e")
		(effects
			(font
				(size 1.27 1.27)
			)
		)
	)
	(property "Datasheet" ""
		(at 0 0 0)
		(unlocked yes)
		(layer "F.Fab")
		(hide yes)
		(uuid "e880b3a1-10ce-443a-bd48-faa81447e9d0")
		(effects
			(font
				(size 1.27 1.27)
			)
		)
	)
	(property "Description" ""
		(at 0 0 0)
		(unlocked yes)
		(layer "F.Fab")
		(hide yes)
		(uuid "51c46c86-4ce0-476d-9db2-cebddcd325c3")
		(effects
			(font
				(size 1.27 1.27)
			)
		)
	)
	(attr through_hole)
	(fp_line
		(start -1.62 2.4)
		(end -1.62 3.3)
		(stroke
			(width 0.12)
			(type solid)
		)
		(layer "F.SilkS")
		(uuid "d6f6f1fa-27cc-4a13-8a90-f2263b6a3adb")
	)
	(fp_line
		(start -1.62 6)
		(end -1.62 8.73)
		(stroke
			(width 0.12)
			(type solid)
		)
		(layer "F.SilkS")
		(uuid "d7762d32-1333-43b0-8385-810d32faaa22")
	)
	(fp_line
		(start -1.62 8.73)
		(end 7.57 8.73)
		(stroke
			(width 0.12)
			(type solid)
		)
		(layer "F.SilkS")
		(uuid "c01587b4-5945-4a87-a8f4-2059f0309e2e")
	)
	(fp_line
		(start -1.5 -0.68)
		(end 7.45 -0.68)
		(stroke
			(width 0.12)
			(type solid)
		)
		(layer "F.SilkS")
		(uuid "1ef0aceb-1b9e-42f4-b0c6-696445a3a27f")
	)
	(fp_line
		(start 7.57 2.4)
		(end 7.57 3.3)
		(stroke
			(width 0.12)
			(type solid)
		)
		(layer "F.SilkS")
		(uuid "e6dbd2b7-00ee-4d5a-8d56-55b70378cca8")
	)
	(fp_line
		(start 7.57 6)
		(end 7.57 8.73)
		(stroke
			(width 0.12)
			(type solid)
		)
		(layer "F.SilkS")
		(uuid "18fc60dd-4c01-407e-ab3f-1bb1756bba07")
	)
	(fp_line
		(start -2.3 -1.06)
		(end -2.3 9.11)
		(stroke
			(width 0.05)
			(type solid)
		)
		(layer "F.CrtYd")
		(uuid "ba19c308-c18f-4a64-b40e-622c195df3bd")
	)
	(fp_line
		(start -2.3 -1.06)
		(end 8.25 -1.06)
		(stroke
			(width 0.05)
			(type solid)
		)
		(layer "F.CrtYd")
		(uuid "3d191298-16d1-4078-bbb3-45d400744b65")
	)
	(fp_line
		(start -2.3 9.11)
		(end 8.25 9.11)
		(stroke
			(width 0.05)
			(type solid)
		)
		(layer "F.CrtYd")
		(uuid "85bbbe30-9928-4e30-8238-506e07e9e75d")
	)
	(fp_line
		(start 8.25 -1.06)
		(end 8.25 9.11)
		(stroke
			(width 0.05)
			(type solid)
		)
		(layer "F.CrtYd")
		(uuid "a234ec41-5233-4776-ab43-bf762d86ae12")
	)
	(fp_line
		(start -1.5 -0.56)
		(end -1.5 8.61)
		(stroke
			(width 0.1)
			(type solid)
		)
		(layer "F.Fab")
		(uuid "4459c9f3-bed9-4898-b0f9-d704dc56efd4")
	)
	(fp_line
		(start -1.5 -0.56)
		(end 7.45 -0.56)
		(stroke
			(width 0.1)
			(type solid)
		)
		(layer "F.Fab")
		(uuid "bb51e42f-f490-4f97-9ed2-76cf921c2f5e")
	)
	(fp_line
		(start -1.5 8.61)
		(end 7.45 8.61)
		(stroke
			(width 0.1)
			(type solid)
		)
		(layer "F.Fab")
		(uuid "b419da0b-c015-4845-a1c0-35393589f2ed")
	)
	(fp_line
		(start -0.025 6.1)
		(end 5.975 6.1)
		(stroke
			(width 0.1)
			(type solid)
		)
		(layer "F.Fab")
		(uuid "eb053e3d-e814-46cc-9142-4cee41c83f09")
	)
	(fp_line
		(start 7.45 -0.56)
		(end 7.45 8.61)
		(stroke
			(width 0.1)
			(type solid)
		)
		(layer "F.Fab")
		(uuid "c3f11037-f8b0-42f9-818a-4f3daefcf7ca")
	)
	(fp_text user "PCB Edge"
		(at 2.975 6.1 0)
		(layer "Dwgs.User")
		(uuid "67b623c5-dcce-4948-9705-8bbb63602c5b")
		(effects
			(font
				(size 0.5 0.5)
				(thickness 0.1)
			)
		)
	)
	(fp_text user "${REFERENCE}"
		(at 2.975 4.025 0)
		(layer "F.Fab")
		(uuid "b33636e6-e4b8-44f1-96cd-5fdd0645e656")
		(effects
			(font
				(size 1 1)
				(thickness 0.15)
			)
		)
	)
	(pad "A1" thru_hole circle
		(at 0 0)
		(size 0.7 0.7)
		(drill 0.4)
		(layers "*.Cu" "*.Mask")
		(remove_unused_layers no)
		(uuid "973433db-dbe2-4b63-a2c7-f47e00988053")
	)
	(pad "A4" thru_hole circle
		(at 0.85 0)
		(size 0.7 0.7)
		(drill 0.4)
		(layers "*.Cu" "*.Mask")
		(remove_unused_layers no)
		(uuid "99d6436b-fa55-4f52-8e98-47cec3bfc02d")
	)
	(pad "A5" thru_hole circle
		(at 1.7 0)
		(size 0.7 0.7)
		(drill 0.4)
		(layers "*.Cu" "*.Mask")
		(remove_unused_layers no)
		(uuid "8f0ab270-50b1-4135-8a7e-b7c59f6e45ee")
	)
	(pad "A6" thru_hole circle
		(at 2.55 0)
		(size 0.7 0.7)
		(drill 0.4)
		(layers "*.Cu" "*.Mask")
		(remove_unused_layers no)
		(uuid "68d6c6ab-c45c-499e-82bd-63b20a3129a8")
	)
	(pad "A7" thru_hole circle
		(at 3.4 0)
		(size 0.7 0.7)
		(drill 0.4)
		(layers "*.Cu" "*.Mask")
		(remove_unused_layers no)
		(uuid "b8d12c18-f03d-4993-a88e-e1b6720ba265")
	)
	(pad "A8" thru_hole circle
		(at 4.25 0)
		(size 0.7 0.7)
		(drill 0.4)
		(layers "*.Cu" "*.Mask")
		(remove_unused_layers no)
		(uuid "41cc4085-e8d1-4114-876c-ebd9daa78a9f")
	)
	(pad "A9" thru_hole circle
		(at 5.1 0)
		(size 0.7 0.7)
		(drill 0.4)
		(layers "*.Cu" "*.Mask")
		(remove_unused_layers no)
		(uuid "ff3ac5f8-191a-4b29-9c51-26f675661566")
	)
	(pad "A12" thru_hole circle
		(at 5.95 0)
		(size 0.7 0.7)
		(drill 0.4)
		(layers "*.Cu" "*.Mask")
		(remove_unused_layers no)
		(uuid "013f0886-478f-4df3-843e-83c45ed19dd1")
	)
	(pad "B1" thru_hole circle
		(at 5.95 1.35)
		(size 0.7 0.7)
		(drill 0.4)
		(layers "*.Cu" "*.Mask")
		(remove_unused_layers no)
		(uuid "065ce6fb-d3bc-4f0f-8c50-2d505cb1962b")
	)
	(pad "B4" thru_hole circle
		(at 5.1 1.35)
		(size 0.7 0.7)
		(drill 0.4)
		(layers "*.Cu" "*.Mask")
		(remove_unused_layers no)
		(uuid "99ccba2d-a49d-486f-9691-c7fdd26402cf")
	)
	(pad "B5" thru_hole circle
		(at 4.25 1.35)
		(size 0.7 0.7)
		(drill 0.4)
		(layers "*.Cu" "*.Mask")
		(remove_unused_layers no)
		(uuid "e119bdb8-7639-43f7-8432-92c041d6914b")
	)
	(pad "B6" thru_hole circle
		(at 3.4 1.35)
		(size 0.7 0.7)
		(drill 0.4)
		(layers "*.Cu" "*.Mask")
		(remove_unused_layers no)
		(uuid "fab6ff1c-b2f6-4f20-bc26-9ec338d77b24")
	)
	(pad "B7" thru_hole circle
		(at 2.55 1.35)
		(size 0.7 0.7)
		(drill 0.4)
		(layers "*.Cu" "*.Mask")
		(remove_unused_layers no)
		(uuid "60bcd0e0-3717-4c6b-b499-416004cfd7c6")
	)
	(pad "B8" thru_hole circle
		(at 1.7 1.35)
		(size 0.7 0.7)
		(drill 0.4)
		(layers "*.Cu" "*.Mask")
		(remove_unused_layers no)
		(uuid "e3838170-a370-4746-a3b2-9aaf15ea5082")
	)
	(pad "B9" thru_hole circle
		(at 0.85 1.35)
		(size 0.7 0.7)
		(drill 0.4)
		(layers "*.Cu" "*.Mask")
		(remove_unused_layers no)
		(uuid "8d976016-b965-4db1-817f-1974b76ce035")
	)
	(pad "B12" thru_hole circle
		(at 0 1.35)
		(size 0.7 0.7)
		(drill 0.4)
		(layers "*.Cu" "*.Mask")
		(remove_unused_layers no)
		(uuid "0ab0e897-5d63-4ef1-9ee6-3700773a5942")
	)
	(pad "S1" thru_hole oval
		(at -1.35 0.98)
		(size 0.9 2.4)
		(drill oval 0.6 2.1)
		(layers "*.Cu" "*.Mask")
		(remove_unused_layers no)
		(uuid "cefc21b4-897a-4704-b79f-b03cac7e6196")
	)
	(pad "S1" thru_hole oval
		(at -1.35 4.36)
		(size 0.9 1.7)
		(drill oval 0.6 1.4)
		(layers "*.Cu" "*.Mask")
		(remove_unused_layers no)
		(uuid "b2b1cf48-5ba1-49a6-b657-dbfc4b173eb0")
	)
	(pad "S1" thru_hole oval
		(at 7.3 0.98)
		(size 0.9 2.4)
		(drill oval 0.6 2.1)
		(layers "*.Cu" "*.Mask")
		(remove_unused_layers no)
		(uuid "c2db037b-000a-48fc-8842-ed285004ea8a")
	)
	(pad "S1" thru_hole oval
		(at 7.3 4.36)
		(size 0.9 1.7)
		(drill oval 0.6 1.4)
		(layers "*.Cu" "*.Mask")
		(remove_unused_layers no)
		(uuid "76e830c0-2c82-4d14-a64c-e8c8edac400f")
	)
	(model "${KIPRJMOD}/models/USB4085-GF-A.stp"
		(offset
			(xyz 15 -4 1.85)
		)
		(scale
			(xyz 1 1 1)
		)
		(rotate
			(xyz -90 0 0)
		)
	)
)