%TF.GenerationSoftware,KiCad,Pcbnew,8.0.1-8.0.1-1~ubuntu22.04.1*%
%TF.CreationDate,2024-04-26T19:00:11+01:00*%
%TF.ProjectId,rhoquantum,72686f71-7561-46e7-9475-6d2e6b696361,rev?*%
%TF.SameCoordinates,Original*%
%TF.FileFunction,Soldermask,Bot*%
%TF.FilePolarity,Negative*%
%FSLAX46Y46*%
G04 Gerber Fmt 4.6, Leading zero omitted, Abs format (unit mm)*
G04 Created by KiCad (PCBNEW 8.0.1-8.0.1-1~ubuntu22.04.1) date 2024-04-26 19:00:11*
%MOMM*%
%LPD*%
G01*
G04 APERTURE LIST*
G04 Aperture macros list*
%AMRoundRect*
0 Rectangle with rounded corners*
0 $1 Rounding radius*
0 $2 $3 $4 $5 $6 $7 $8 $9 X,Y pos of 4 corners*
0 Add a 4 corners polygon primitive as box body*
4,1,4,$2,$3,$4,$5,$6,$7,$8,$9,$2,$3,0*
0 Add four circle primitives for the rounded corners*
1,1,$1+$1,$2,$3*
1,1,$1+$1,$4,$5*
1,1,$1+$1,$6,$7*
1,1,$1+$1,$8,$9*
0 Add four rect primitives between the rounded corners*
20,1,$1+$1,$2,$3,$4,$5,0*
20,1,$1+$1,$4,$5,$6,$7,0*
20,1,$1+$1,$6,$7,$8,$9,0*
20,1,$1+$1,$8,$9,$2,$3,0*%
%AMFreePoly0*
4,1,19,0.500000,-0.750000,0.000000,-0.750000,0.000000,-0.744911,-0.071157,-0.744911,-0.207708,-0.704816,-0.327430,-0.627875,-0.420627,-0.520320,-0.479746,-0.390866,-0.500000,-0.250000,-0.500000,0.250000,-0.479746,0.390866,-0.420627,0.520320,-0.327430,0.627875,-0.207708,0.704816,-0.071157,0.744911,0.000000,0.744911,0.000000,0.750000,0.500000,0.750000,0.500000,-0.750000,0.500000,-0.750000,
$1*%
%AMFreePoly1*
4,1,19,0.000000,0.744911,0.071157,0.744911,0.207708,0.704816,0.327430,0.627875,0.420627,0.520320,0.479746,0.390866,0.500000,0.250000,0.500000,-0.250000,0.479746,-0.390866,0.420627,-0.520320,0.327430,-0.627875,0.207708,-0.704816,0.071157,-0.744911,0.000000,-0.744911,0.000000,-0.750000,-0.500000,-0.750000,-0.500000,0.750000,0.000000,0.750000,0.000000,0.744911,0.000000,0.744911,
$1*%
G04 Aperture macros list end*
%ADD10C,6.500000*%
%ADD11C,0.700000*%
%ADD12O,2.600000X1.100000*%
%ADD13O,1.900000X1.100000*%
%ADD14C,1.800000*%
%ADD15C,5.000000*%
%ADD16R,1.600000X1.500000*%
%ADD17C,1.600000*%
%ADD18C,4.000000*%
%ADD19R,2.000000X1.800000*%
%ADD20RoundRect,0.250000X-0.475000X0.337500X-0.475000X-0.337500X0.475000X-0.337500X0.475000X0.337500X0*%
%ADD21C,1.000000*%
%ADD22RoundRect,0.250000X-0.337500X-0.475000X0.337500X-0.475000X0.337500X0.475000X-0.337500X0.475000X0*%
%ADD23RoundRect,0.250000X-0.875000X-1.025000X0.875000X-1.025000X0.875000X1.025000X-0.875000X1.025000X0*%
%ADD24RoundRect,0.250000X0.337500X0.475000X-0.337500X0.475000X-0.337500X-0.475000X0.337500X-0.475000X0*%
%ADD25FreePoly0,270.000000*%
%ADD26FreePoly1,270.000000*%
%ADD27FreePoly0,90.000000*%
%ADD28FreePoly1,90.000000*%
%ADD29RoundRect,0.250000X-0.450000X0.350000X-0.450000X-0.350000X0.450000X-0.350000X0.450000X0.350000X0*%
%ADD30R,0.400000X1.000000*%
%ADD31R,2.000000X1.300000*%
%ADD32RoundRect,0.250000X0.450000X-0.350000X0.450000X0.350000X-0.450000X0.350000X-0.450000X-0.350000X0*%
%ADD33C,2.340000*%
%ADD34RoundRect,0.250000X0.475000X-0.337500X0.475000X0.337500X-0.475000X0.337500X-0.475000X-0.337500X0*%
%ADD35R,0.650000X1.560000*%
%ADD36R,0.458000X1.510000*%
%ADD37R,1.600000X1.600000*%
%ADD38RoundRect,0.250000X-0.350000X-0.450000X0.350000X-0.450000X0.350000X0.450000X-0.350000X0.450000X0*%
%ADD39R,1.000000X0.400000*%
%ADD40R,1.300000X2.000000*%
G04 APERTURE END LIST*
D10*
%TO.C,TP5*%
X81470000Y-111601481D03*
%TD*%
D11*
%TO.C,J2*%
X79675000Y-82200000D03*
X79675000Y-83050000D03*
X79675000Y-83900000D03*
X79675000Y-84750000D03*
X79675000Y-85600000D03*
X79675000Y-86450000D03*
X79675000Y-87300000D03*
X79675000Y-88150000D03*
X78325000Y-88150000D03*
X78325000Y-87300000D03*
X78325000Y-86450000D03*
X78325000Y-85600000D03*
X78325000Y-84750000D03*
X78325000Y-83900000D03*
X78325000Y-83050000D03*
X78325000Y-82200000D03*
D12*
X78695000Y-80850000D03*
D13*
X75315000Y-80850000D03*
D12*
X78695000Y-89500000D03*
D13*
X75315000Y-89500000D03*
%TD*%
D10*
%TO.C,TP9*%
X131970000Y-67800211D03*
%TD*%
%TO.C,TP7*%
X115130000Y-111601481D03*
%TD*%
%TO.C,TP1*%
X81470000Y-67800211D03*
%TD*%
%TO.C,TP11*%
X165630000Y-67800211D03*
%TD*%
%TO.C,TP2*%
X81470000Y-97001058D03*
%TD*%
%TO.C,TP4*%
X115130000Y-97001058D03*
%TD*%
D14*
%TO.C,U8*%
X161500000Y-82792328D03*
X158960000Y-82792328D03*
X156420000Y-82792328D03*
X153880000Y-82792328D03*
X151340000Y-82792328D03*
X148800000Y-82792328D03*
X146260000Y-82792328D03*
X143720000Y-82792328D03*
D10*
X165630000Y-140802328D03*
D15*
X165630000Y-82792328D03*
D14*
X141180000Y-82792328D03*
D10*
X131970000Y-140802328D03*
D15*
X131970000Y-82792328D03*
D14*
X138640000Y-82792328D03*
X136100000Y-82792328D03*
%TD*%
D10*
%TO.C,TP10*%
X131970000Y-97001058D03*
%TD*%
D16*
%TO.C,J9*%
X95450000Y-138340000D03*
D17*
X97950000Y-138340000D03*
X99950000Y-138340000D03*
X102450000Y-138340000D03*
D18*
X92380000Y-141050000D03*
X105520000Y-141050000D03*
%TD*%
D10*
%TO.C,TP3*%
X115130000Y-67800211D03*
%TD*%
%TO.C,TP13*%
X131970000Y-111601481D03*
%TD*%
%TO.C,TP8*%
X115130000Y-140802328D03*
%TD*%
D16*
%TO.C,J8*%
X145250000Y-138340000D03*
D17*
X147750000Y-138340000D03*
X149750000Y-138340000D03*
X152250000Y-138340000D03*
D18*
X142180000Y-141050000D03*
X155320000Y-141050000D03*
%TD*%
D19*
%TO.C,J1*%
X85910000Y-145800000D03*
D14*
X83370000Y-145800000D03*
X80830000Y-145800000D03*
X78290000Y-145800000D03*
X75750000Y-145800000D03*
%TD*%
D10*
%TO.C,TP15*%
X165630000Y-111601481D03*
%TD*%
%TO.C,TP12*%
X165630000Y-97001058D03*
%TD*%
%TO.C,TP6*%
X81470000Y-140802328D03*
%TD*%
D20*
%TO.C,C7*%
X84050000Y-127112500D03*
X84050000Y-129187500D03*
%TD*%
%TO.C,C55*%
X112133333Y-132464616D03*
X112133333Y-134539616D03*
%TD*%
%TO.C,C45*%
X145800000Y-74062923D03*
X145800000Y-76137923D03*
%TD*%
D21*
%TO.C,TP23*%
X90450000Y-129650000D03*
%TD*%
D22*
%TO.C,C19*%
X100212500Y-107200000D03*
X102287500Y-107200000D03*
%TD*%
D23*
%TO.C,C64*%
X96000000Y-143700000D03*
X102400000Y-143700000D03*
%TD*%
D24*
%TO.C,C34*%
X99287500Y-111000000D03*
X97212500Y-111000000D03*
%TD*%
D25*
%TO.C,JP11*%
X76650000Y-111700000D03*
D26*
X76650000Y-113000000D03*
%TD*%
D21*
%TO.C,TP22*%
X110100000Y-130600000D03*
%TD*%
D20*
%TO.C,C43*%
X112133333Y-74062923D03*
X112133333Y-76137923D03*
%TD*%
D25*
%TO.C,JP13*%
X124050000Y-84250000D03*
D26*
X124050000Y-85550000D03*
%TD*%
D25*
%TO.C,JP12*%
X122050000Y-96900000D03*
D26*
X122050000Y-98200000D03*
%TD*%
D27*
%TO.C,JP1*%
X76650000Y-106250000D03*
D28*
X76650000Y-104950000D03*
%TD*%
D29*
%TO.C,R2*%
X76650000Y-98600000D03*
X76650000Y-100600000D03*
%TD*%
D20*
%TO.C,C50*%
X134966666Y-103263770D03*
X134966666Y-105338770D03*
%TD*%
D30*
%TO.C,J6*%
X96050000Y-76910000D03*
X97050000Y-76910000D03*
X98050000Y-76910000D03*
X99050000Y-76910000D03*
X100050000Y-76910000D03*
X101050000Y-76910000D03*
D31*
X93250000Y-74210000D03*
X103850000Y-74210000D03*
%TD*%
D30*
%TO.C,J10*%
X121050000Y-76910000D03*
X122050000Y-76910000D03*
X123050000Y-76910000D03*
X124050000Y-76910000D03*
X125050000Y-76910000D03*
X126050000Y-76910000D03*
D31*
X118250000Y-74210000D03*
X128850000Y-74210000D03*
%TD*%
D20*
%TO.C,C49*%
X128966666Y-103263770D03*
X128966666Y-105338770D03*
%TD*%
%TO.C,C47*%
X162633333Y-103263770D03*
X162633333Y-105338770D03*
%TD*%
D32*
%TO.C,R16*%
X144750000Y-119800000D03*
X144750000Y-117800000D03*
%TD*%
D33*
%TO.C,RV2*%
X171050000Y-134700000D03*
X161050000Y-132200000D03*
X171050000Y-129700000D03*
%TD*%
D20*
%TO.C,C58*%
X151800000Y-132464616D03*
X151800000Y-134539616D03*
%TD*%
D22*
%TO.C,C20*%
X94612500Y-106000000D03*
X96687500Y-106000000D03*
%TD*%
D29*
%TO.C,R25*%
X171100000Y-110750000D03*
X171100000Y-112750000D03*
%TD*%
D21*
%TO.C,TP21*%
X88500000Y-111850000D03*
%TD*%
D34*
%TO.C,C9*%
X110500000Y-110437500D03*
X110500000Y-108362500D03*
%TD*%
D20*
%TO.C,C46*%
X151800000Y-74062923D03*
X151800000Y-76137923D03*
%TD*%
D35*
%TO.C,U5*%
X151800000Y-117750000D03*
X150850000Y-117750000D03*
X149900000Y-117750000D03*
X149900000Y-115050000D03*
X151800000Y-115050000D03*
%TD*%
D20*
%TO.C,C8*%
X80800000Y-127112500D03*
X80800000Y-129187500D03*
%TD*%
D24*
%TO.C,C51*%
X95750000Y-100000000D03*
X93675000Y-100000000D03*
%TD*%
D20*
%TO.C,C38*%
X106450000Y-129262500D03*
X106450000Y-131337500D03*
%TD*%
%TO.C,C40*%
X97000000Y-129262500D03*
X97000000Y-131337500D03*
%TD*%
D36*
%TO.C,U7*%
X108050000Y-126100000D03*
X107250000Y-126100000D03*
X106450000Y-126100000D03*
X105650000Y-126100000D03*
X104850000Y-126100000D03*
X104050000Y-126100000D03*
X103250000Y-126100000D03*
X102450000Y-126100000D03*
X101650000Y-126100000D03*
X100850000Y-126100000D03*
X100050000Y-126100000D03*
X99250000Y-126100000D03*
X98450000Y-126100000D03*
X97650000Y-126100000D03*
X96850000Y-126100000D03*
X96050000Y-126100000D03*
X95250000Y-126100000D03*
X94450000Y-126100000D03*
X93650000Y-126100000D03*
X92850000Y-126100000D03*
X92050000Y-126100000D03*
X91250000Y-126100000D03*
X90450000Y-126100000D03*
X89650000Y-126100000D03*
X88850000Y-126100000D03*
X88050000Y-126100000D03*
X87250000Y-126100000D03*
X87250000Y-114600000D03*
X88050000Y-114600000D03*
X88850000Y-114600000D03*
X89650000Y-114600000D03*
X90450000Y-114600000D03*
X91250000Y-114600000D03*
X92050000Y-114600000D03*
X92850000Y-114600000D03*
X93650000Y-114600000D03*
X94450000Y-114600000D03*
X95250000Y-114600000D03*
X96050000Y-114600000D03*
X96850000Y-114600000D03*
X97650000Y-114600000D03*
X98450000Y-114600000D03*
X99250000Y-114600000D03*
X100050000Y-114600000D03*
X100850000Y-114600000D03*
X101650000Y-114600000D03*
X102450000Y-114600000D03*
X103250000Y-114600000D03*
X104050000Y-114600000D03*
X104850000Y-114600000D03*
X105650000Y-114600000D03*
X106450000Y-114600000D03*
X107250000Y-114600000D03*
X108050000Y-114600000D03*
%TD*%
D37*
%TO.C,LS1*%
X123550000Y-124950000D03*
D17*
X123550000Y-118450000D03*
%TD*%
D20*
%TO.C,C56*%
X118133333Y-132464616D03*
X118133333Y-134539616D03*
%TD*%
D23*
%TO.C,C62*%
X145900000Y-143700000D03*
X152300000Y-143700000D03*
%TD*%
D22*
%TO.C,C30*%
X151812500Y-111200000D03*
X153887500Y-111200000D03*
%TD*%
D34*
%TO.C,C36*%
X83250000Y-121137500D03*
X83250000Y-119062500D03*
%TD*%
%TO.C,C37*%
X112315000Y-121337500D03*
X112315000Y-119262500D03*
%TD*%
D20*
%TO.C,C48*%
X168633333Y-103263770D03*
X168633333Y-105338770D03*
%TD*%
D38*
%TO.C,R33*%
X169800000Y-140800000D03*
X171800000Y-140800000D03*
%TD*%
D24*
%TO.C,C52*%
X101750000Y-100000000D03*
X99675000Y-100000000D03*
%TD*%
D20*
%TO.C,C53*%
X78466666Y-132464616D03*
X78466666Y-134539616D03*
%TD*%
D24*
%TO.C,C1*%
X80937500Y-115850000D03*
X78862500Y-115850000D03*
%TD*%
D20*
%TO.C,C42*%
X84466666Y-74062923D03*
X84466666Y-76137923D03*
%TD*%
D39*
%TO.C,J5*%
X140640000Y-102500000D03*
X140640000Y-103500000D03*
X140640000Y-104500000D03*
X140640000Y-105500000D03*
X140640000Y-106500000D03*
X140640000Y-107500000D03*
D40*
X143340000Y-99700000D03*
X143340000Y-110300000D03*
%TD*%
D22*
%TO.C,C35*%
X103962500Y-111000000D03*
X106037500Y-111000000D03*
%TD*%
D20*
%TO.C,C29*%
X157250000Y-117962500D03*
X157250000Y-120037500D03*
%TD*%
D33*
%TO.C,RV1*%
X171050000Y-122950000D03*
X161050000Y-120450000D03*
X171050000Y-117950000D03*
%TD*%
D20*
%TO.C,C57*%
X145800000Y-132464616D03*
X145800000Y-134539616D03*
%TD*%
%TO.C,C39*%
X101650000Y-129262500D03*
X101650000Y-131337500D03*
%TD*%
D30*
%TO.C,J7*%
X146050000Y-93910000D03*
X147050000Y-93910000D03*
X148050000Y-93910000D03*
X149050000Y-93910000D03*
X150050000Y-93910000D03*
X151050000Y-93910000D03*
D31*
X143250000Y-91210000D03*
X153850000Y-91210000D03*
%TD*%
D39*
%TO.C,J4*%
X89460000Y-107500000D03*
X89460000Y-106500000D03*
X89460000Y-105500000D03*
X89460000Y-104500000D03*
X89460000Y-103500000D03*
X89460000Y-102500000D03*
D40*
X86760000Y-110300000D03*
X86760000Y-99700000D03*
%TD*%
D20*
%TO.C,C10*%
X105900000Y-133762500D03*
X105900000Y-135837500D03*
%TD*%
D24*
%TO.C,C59*%
X138425000Y-78400000D03*
X136350000Y-78400000D03*
%TD*%
D20*
%TO.C,C41*%
X78466666Y-74062923D03*
X78466666Y-76137923D03*
%TD*%
D30*
%TO.C,J3*%
X121050000Y-93910000D03*
X122050000Y-93910000D03*
X123050000Y-93910000D03*
X124050000Y-93910000D03*
X125050000Y-93910000D03*
X126050000Y-93910000D03*
D31*
X118250000Y-91210000D03*
X128850000Y-91210000D03*
%TD*%
D20*
%TO.C,C54*%
X84466666Y-132464616D03*
X84466666Y-134539616D03*
%TD*%
M02*
