%TF.GenerationSoftware,KiCad,Pcbnew,8.0.1-8.0.1-1~ubuntu22.04.1*%
%TF.CreationDate,2024-04-26T19:00:11+01:00*%
%TF.ProjectId,rhoquantum,72686f71-7561-46e7-9475-6d2e6b696361,rev?*%
%TF.SameCoordinates,Original*%
%TF.FileFunction,Paste,Bot*%
%TF.FilePolarity,Positive*%
%FSLAX46Y46*%
G04 Gerber Fmt 4.6, Leading zero omitted, Abs format (unit mm)*
G04 Created by KiCad (PCBNEW 8.0.1-8.0.1-1~ubuntu22.04.1) date 2024-04-26 19:00:11*
%MOMM*%
%LPD*%
G01*
G04 APERTURE LIST*
G04 Aperture macros list*
%AMRoundRect*
0 Rectangle with rounded corners*
0 $1 Rounding radius*
0 $2 $3 $4 $5 $6 $7 $8 $9 X,Y pos of 4 corners*
0 Add a 4 corners polygon primitive as box body*
4,1,4,$2,$3,$4,$5,$6,$7,$8,$9,$2,$3,0*
0 Add four circle primitives for the rounded corners*
1,1,$1+$1,$2,$3*
1,1,$1+$1,$4,$5*
1,1,$1+$1,$6,$7*
1,1,$1+$1,$8,$9*
0 Add four rect primitives between the rounded corners*
20,1,$1+$1,$2,$3,$4,$5,0*
20,1,$1+$1,$4,$5,$6,$7,0*
20,1,$1+$1,$6,$7,$8,$9,0*
20,1,$1+$1,$8,$9,$2,$3,0*%
G04 Aperture macros list end*
%ADD10RoundRect,0.250000X-0.475000X0.337500X-0.475000X-0.337500X0.475000X-0.337500X0.475000X0.337500X0*%
%ADD11RoundRect,0.250000X-0.337500X-0.475000X0.337500X-0.475000X0.337500X0.475000X-0.337500X0.475000X0*%
%ADD12RoundRect,0.250000X-0.875000X-1.025000X0.875000X-1.025000X0.875000X1.025000X-0.875000X1.025000X0*%
%ADD13RoundRect,0.250000X0.337500X0.475000X-0.337500X0.475000X-0.337500X-0.475000X0.337500X-0.475000X0*%
%ADD14RoundRect,0.250000X-0.450000X0.350000X-0.450000X-0.350000X0.450000X-0.350000X0.450000X0.350000X0*%
%ADD15R,0.400000X1.000000*%
%ADD16R,2.000000X1.300000*%
%ADD17RoundRect,0.250000X0.450000X-0.350000X0.450000X0.350000X-0.450000X0.350000X-0.450000X-0.350000X0*%
%ADD18RoundRect,0.250000X0.475000X-0.337500X0.475000X0.337500X-0.475000X0.337500X-0.475000X-0.337500X0*%
%ADD19R,0.650000X1.560000*%
%ADD20R,0.458000X1.510000*%
%ADD21RoundRect,0.250000X-0.350000X-0.450000X0.350000X-0.450000X0.350000X0.450000X-0.350000X0.450000X0*%
%ADD22R,1.000000X0.400000*%
%ADD23R,1.300000X2.000000*%
G04 APERTURE END LIST*
D10*
%TO.C,C7*%
X84050000Y-127112500D03*
X84050000Y-129187500D03*
%TD*%
%TO.C,C55*%
X112133333Y-132464616D03*
X112133333Y-134539616D03*
%TD*%
%TO.C,C45*%
X145800000Y-74062923D03*
X145800000Y-76137923D03*
%TD*%
D11*
%TO.C,C19*%
X100212500Y-107200000D03*
X102287500Y-107200000D03*
%TD*%
D12*
%TO.C,C64*%
X96000000Y-143700000D03*
X102400000Y-143700000D03*
%TD*%
D13*
%TO.C,C34*%
X99287500Y-111000000D03*
X97212500Y-111000000D03*
%TD*%
D10*
%TO.C,C43*%
X112133333Y-74062923D03*
X112133333Y-76137923D03*
%TD*%
D14*
%TO.C,R2*%
X76650000Y-98600000D03*
X76650000Y-100600000D03*
%TD*%
D10*
%TO.C,C50*%
X134966666Y-103263770D03*
X134966666Y-105338770D03*
%TD*%
D15*
%TO.C,J6*%
X96050000Y-76910000D03*
X97050000Y-76910000D03*
X98050000Y-76910000D03*
X99050000Y-76910000D03*
X100050000Y-76910000D03*
X101050000Y-76910000D03*
D16*
X93250000Y-74210000D03*
X103850000Y-74210000D03*
%TD*%
D15*
%TO.C,J10*%
X121050000Y-76910000D03*
X122050000Y-76910000D03*
X123050000Y-76910000D03*
X124050000Y-76910000D03*
X125050000Y-76910000D03*
X126050000Y-76910000D03*
D16*
X118250000Y-74210000D03*
X128850000Y-74210000D03*
%TD*%
D10*
%TO.C,C49*%
X128966666Y-103263770D03*
X128966666Y-105338770D03*
%TD*%
%TO.C,C47*%
X162633333Y-103263770D03*
X162633333Y-105338770D03*
%TD*%
D17*
%TO.C,R16*%
X144750000Y-119800000D03*
X144750000Y-117800000D03*
%TD*%
D10*
%TO.C,C58*%
X151800000Y-132464616D03*
X151800000Y-134539616D03*
%TD*%
D11*
%TO.C,C20*%
X94612500Y-106000000D03*
X96687500Y-106000000D03*
%TD*%
D14*
%TO.C,R25*%
X171100000Y-110750000D03*
X171100000Y-112750000D03*
%TD*%
D18*
%TO.C,C9*%
X110500000Y-110437500D03*
X110500000Y-108362500D03*
%TD*%
D10*
%TO.C,C46*%
X151800000Y-74062923D03*
X151800000Y-76137923D03*
%TD*%
D19*
%TO.C,U5*%
X151800000Y-117750000D03*
X150850000Y-117750000D03*
X149900000Y-117750000D03*
X149900000Y-115050000D03*
X151800000Y-115050000D03*
%TD*%
D10*
%TO.C,C8*%
X80800000Y-127112500D03*
X80800000Y-129187500D03*
%TD*%
D13*
%TO.C,C51*%
X95750000Y-100000000D03*
X93675000Y-100000000D03*
%TD*%
D10*
%TO.C,C38*%
X106450000Y-129262500D03*
X106450000Y-131337500D03*
%TD*%
%TO.C,C40*%
X97000000Y-129262500D03*
X97000000Y-131337500D03*
%TD*%
D20*
%TO.C,U7*%
X108050000Y-126100000D03*
X107250000Y-126100000D03*
X106450000Y-126100000D03*
X105650000Y-126100000D03*
X104850000Y-126100000D03*
X104050000Y-126100000D03*
X103250000Y-126100000D03*
X102450000Y-126100000D03*
X101650000Y-126100000D03*
X100850000Y-126100000D03*
X100050000Y-126100000D03*
X99250000Y-126100000D03*
X98450000Y-126100000D03*
X97650000Y-126100000D03*
X96850000Y-126100000D03*
X96050000Y-126100000D03*
X95250000Y-126100000D03*
X94450000Y-126100000D03*
X93650000Y-126100000D03*
X92850000Y-126100000D03*
X92050000Y-126100000D03*
X91250000Y-126100000D03*
X90450000Y-126100000D03*
X89650000Y-126100000D03*
X88850000Y-126100000D03*
X88050000Y-126100000D03*
X87250000Y-126100000D03*
X87250000Y-114600000D03*
X88050000Y-114600000D03*
X88850000Y-114600000D03*
X89650000Y-114600000D03*
X90450000Y-114600000D03*
X91250000Y-114600000D03*
X92050000Y-114600000D03*
X92850000Y-114600000D03*
X93650000Y-114600000D03*
X94450000Y-114600000D03*
X95250000Y-114600000D03*
X96050000Y-114600000D03*
X96850000Y-114600000D03*
X97650000Y-114600000D03*
X98450000Y-114600000D03*
X99250000Y-114600000D03*
X100050000Y-114600000D03*
X100850000Y-114600000D03*
X101650000Y-114600000D03*
X102450000Y-114600000D03*
X103250000Y-114600000D03*
X104050000Y-114600000D03*
X104850000Y-114600000D03*
X105650000Y-114600000D03*
X106450000Y-114600000D03*
X107250000Y-114600000D03*
X108050000Y-114600000D03*
%TD*%
D10*
%TO.C,C56*%
X118133333Y-132464616D03*
X118133333Y-134539616D03*
%TD*%
D12*
%TO.C,C62*%
X145900000Y-143700000D03*
X152300000Y-143700000D03*
%TD*%
D11*
%TO.C,C30*%
X151812500Y-111200000D03*
X153887500Y-111200000D03*
%TD*%
D18*
%TO.C,C36*%
X83250000Y-121137500D03*
X83250000Y-119062500D03*
%TD*%
%TO.C,C37*%
X112315000Y-121337500D03*
X112315000Y-119262500D03*
%TD*%
D10*
%TO.C,C48*%
X168633333Y-103263770D03*
X168633333Y-105338770D03*
%TD*%
D21*
%TO.C,R33*%
X169800000Y-140800000D03*
X171800000Y-140800000D03*
%TD*%
D13*
%TO.C,C52*%
X101750000Y-100000000D03*
X99675000Y-100000000D03*
%TD*%
D10*
%TO.C,C53*%
X78466666Y-132464616D03*
X78466666Y-134539616D03*
%TD*%
D13*
%TO.C,C1*%
X80937500Y-115850000D03*
X78862500Y-115850000D03*
%TD*%
D10*
%TO.C,C42*%
X84466666Y-74062923D03*
X84466666Y-76137923D03*
%TD*%
D22*
%TO.C,J5*%
X140640000Y-102500000D03*
X140640000Y-103500000D03*
X140640000Y-104500000D03*
X140640000Y-105500000D03*
X140640000Y-106500000D03*
X140640000Y-107500000D03*
D23*
X143340000Y-99700000D03*
X143340000Y-110300000D03*
%TD*%
D11*
%TO.C,C35*%
X103962500Y-111000000D03*
X106037500Y-111000000D03*
%TD*%
D10*
%TO.C,C29*%
X157250000Y-117962500D03*
X157250000Y-120037500D03*
%TD*%
%TO.C,C57*%
X145800000Y-132464616D03*
X145800000Y-134539616D03*
%TD*%
%TO.C,C39*%
X101650000Y-129262500D03*
X101650000Y-131337500D03*
%TD*%
D15*
%TO.C,J7*%
X146050000Y-93910000D03*
X147050000Y-93910000D03*
X148050000Y-93910000D03*
X149050000Y-93910000D03*
X150050000Y-93910000D03*
X151050000Y-93910000D03*
D16*
X143250000Y-91210000D03*
X153850000Y-91210000D03*
%TD*%
D22*
%TO.C,J4*%
X89460000Y-107500000D03*
X89460000Y-106500000D03*
X89460000Y-105500000D03*
X89460000Y-104500000D03*
X89460000Y-103500000D03*
X89460000Y-102500000D03*
D23*
X86760000Y-110300000D03*
X86760000Y-99700000D03*
%TD*%
D10*
%TO.C,C10*%
X105900000Y-133762500D03*
X105900000Y-135837500D03*
%TD*%
D13*
%TO.C,C59*%
X138425000Y-78400000D03*
X136350000Y-78400000D03*
%TD*%
D10*
%TO.C,C41*%
X78466666Y-74062923D03*
X78466666Y-76137923D03*
%TD*%
D15*
%TO.C,J3*%
X121050000Y-93910000D03*
X122050000Y-93910000D03*
X123050000Y-93910000D03*
X124050000Y-93910000D03*
X125050000Y-93910000D03*
X126050000Y-93910000D03*
D16*
X118250000Y-91210000D03*
X128850000Y-91210000D03*
%TD*%
D10*
%TO.C,C54*%
X84466666Y-132464616D03*
X84466666Y-134539616D03*
%TD*%
M02*
