%TF.GenerationSoftware,KiCad,Pcbnew,8.0.1-8.0.1-1~ubuntu22.04.1*%
%TF.CreationDate,2024-04-26T19:00:11+01:00*%
%TF.ProjectId,rhoquantum,72686f71-7561-46e7-9475-6d2e6b696361,rev?*%
%TF.SameCoordinates,Original*%
%TF.FileFunction,Paste,Top*%
%TF.FilePolarity,Positive*%
%FSLAX46Y46*%
G04 Gerber Fmt 4.6, Leading zero omitted, Abs format (unit mm)*
G04 Created by KiCad (PCBNEW 8.0.1-8.0.1-1~ubuntu22.04.1) date 2024-04-26 19:00:11*
%MOMM*%
%LPD*%
G01*
G04 APERTURE LIST*
G04 Aperture macros list*
%AMRoundRect*
0 Rectangle with rounded corners*
0 $1 Rounding radius*
0 $2 $3 $4 $5 $6 $7 $8 $9 X,Y pos of 4 corners*
0 Add a 4 corners polygon primitive as box body*
4,1,4,$2,$3,$4,$5,$6,$7,$8,$9,$2,$3,0*
0 Add four circle primitives for the rounded corners*
1,1,$1+$1,$2,$3*
1,1,$1+$1,$4,$5*
1,1,$1+$1,$6,$7*
1,1,$1+$1,$8,$9*
0 Add four rect primitives between the rounded corners*
20,1,$1+$1,$2,$3,$4,$5,0*
20,1,$1+$1,$4,$5,$6,$7,0*
20,1,$1+$1,$6,$7,$8,$9,0*
20,1,$1+$1,$8,$9,$2,$3,0*%
G04 Aperture macros list end*
%ADD10R,2.400000X3.500000*%
%ADD11R,0.900000X1.200000*%
%ADD12RoundRect,0.250000X0.450000X-0.350000X0.450000X0.350000X-0.450000X0.350000X-0.450000X-0.350000X0*%
%ADD13RoundRect,0.250000X-0.337500X-0.475000X0.337500X-0.475000X0.337500X0.475000X-0.337500X0.475000X0*%
%ADD14RoundRect,0.250000X-0.450000X0.350000X-0.450000X-0.350000X0.450000X-0.350000X0.450000X0.350000X0*%
%ADD15R,0.700000X1.450000*%
%ADD16RoundRect,0.250000X-0.450000X0.325000X-0.450000X-0.325000X0.450000X-0.325000X0.450000X0.325000X0*%
%ADD17RoundRect,0.250000X0.337500X0.475000X-0.337500X0.475000X-0.337500X-0.475000X0.337500X-0.475000X0*%
%ADD18RoundRect,0.250000X0.325000X0.450000X-0.325000X0.450000X-0.325000X-0.450000X0.325000X-0.450000X0*%
%ADD19R,2.750000X3.050000*%
%ADD20R,1.200000X2.200000*%
%ADD21RoundRect,0.250000X-0.475000X0.337500X-0.475000X-0.337500X0.475000X-0.337500X0.475000X0.337500X0*%
%ADD22RoundRect,0.050000X-0.550000X-0.050000X0.550000X-0.050000X0.550000X0.050000X-0.550000X0.050000X0*%
%ADD23RoundRect,0.050000X-0.050000X-0.450000X0.050000X-0.450000X0.050000X0.450000X-0.050000X0.450000X0*%
%ADD24RoundRect,0.250000X-0.350000X-0.450000X0.350000X-0.450000X0.350000X0.450000X-0.350000X0.450000X0*%
%ADD25R,1.000000X1.500000*%
%ADD26RoundRect,0.250000X0.475000X-0.337500X0.475000X0.337500X-0.475000X0.337500X-0.475000X-0.337500X0*%
%ADD27RoundRect,0.150000X0.150000X-0.587500X0.150000X0.587500X-0.150000X0.587500X-0.150000X-0.587500X0*%
%ADD28RoundRect,0.250000X0.350000X0.450000X-0.350000X0.450000X-0.350000X-0.450000X0.350000X-0.450000X0*%
%ADD29R,2.000000X1.500000*%
%ADD30R,2.000000X3.800000*%
%ADD31R,0.400000X1.200000*%
%ADD32RoundRect,0.150000X-0.825000X-0.150000X0.825000X-0.150000X0.825000X0.150000X-0.825000X0.150000X0*%
%ADD33RoundRect,0.250000X-0.325000X-0.450000X0.325000X-0.450000X0.325000X0.450000X-0.325000X0.450000X0*%
%ADD34RoundRect,0.075000X-0.662500X-0.075000X0.662500X-0.075000X0.662500X0.075000X-0.662500X0.075000X0*%
%ADD35RoundRect,0.075000X-0.075000X-0.662500X0.075000X-0.662500X0.075000X0.662500X-0.075000X0.662500X0*%
%ADD36R,1.450000X0.700000*%
%ADD37RoundRect,0.250000X0.450000X-0.325000X0.450000X0.325000X-0.450000X0.325000X-0.450000X-0.325000X0*%
%ADD38RoundRect,0.150000X-0.150000X0.825000X-0.150000X-0.825000X0.150000X-0.825000X0.150000X0.825000X0*%
G04 APERTURE END LIST*
D10*
%TO.C,Y1*%
X77750000Y-119400000D03*
X77750000Y-124600000D03*
%TD*%
D11*
%TO.C,D1*%
X131000000Y-72300000D03*
X134300000Y-72300000D03*
%TD*%
D12*
%TO.C,R27*%
X128750000Y-136550000D03*
X128750000Y-134550000D03*
%TD*%
D13*
%TO.C,C22*%
X89512500Y-103800000D03*
X91587500Y-103800000D03*
%TD*%
D14*
%TO.C,R13*%
X137150000Y-76500000D03*
X137150000Y-78500000D03*
%TD*%
D15*
%TO.C,BTN3*%
X125300000Y-146080000D03*
X125300000Y-140920000D03*
X127300000Y-146080000D03*
X127300000Y-140920000D03*
%TD*%
D12*
%TO.C,R26*%
X123250000Y-136500000D03*
X123250000Y-134500000D03*
%TD*%
D16*
%TO.C,LD5*%
X76250000Y-94025000D03*
X76250000Y-96075000D03*
%TD*%
D17*
%TO.C,C18*%
X111387500Y-108500000D03*
X109312500Y-108500000D03*
%TD*%
D18*
%TO.C,LD1*%
X105075000Y-70000000D03*
X103025000Y-70000000D03*
%TD*%
D19*
%TO.C,U4*%
X153155000Y-115575000D03*
X150105000Y-115575000D03*
X153155000Y-118925000D03*
X150105000Y-118925000D03*
D20*
X153910000Y-110950000D03*
X149350000Y-110950000D03*
%TD*%
D17*
%TO.C,C2*%
X78737500Y-128650000D03*
X76662500Y-128650000D03*
%TD*%
D13*
%TO.C,C24*%
X92612500Y-73800000D03*
X94687500Y-73800000D03*
%TD*%
D21*
%TO.C,C17*%
X112350000Y-121962500D03*
X112350000Y-124037500D03*
%TD*%
D17*
%TO.C,C4*%
X83337500Y-116000000D03*
X81262500Y-116000000D03*
%TD*%
D13*
%TO.C,C16*%
X106012500Y-134300000D03*
X108087500Y-134300000D03*
%TD*%
D22*
%TO.C,U3*%
X96550000Y-77362500D03*
X96550000Y-77762500D03*
D23*
X96850000Y-78562500D03*
X97250000Y-78562500D03*
X97650000Y-78562500D03*
X98050000Y-78562500D03*
D22*
X98350000Y-77762500D03*
X98350000Y-77362500D03*
D23*
X98050000Y-76562500D03*
X97650000Y-76562500D03*
X97250000Y-76562500D03*
X96850000Y-76562500D03*
%TD*%
D18*
%TO.C,LD3*%
X91075000Y-70000000D03*
X89025000Y-70000000D03*
%TD*%
D24*
%TO.C,R23*%
X88850000Y-89000000D03*
X90850000Y-89000000D03*
%TD*%
D14*
%TO.C,R6*%
X91050000Y-63400000D03*
X91050000Y-65400000D03*
%TD*%
%TO.C,R7*%
X85700000Y-63400000D03*
X85700000Y-65400000D03*
%TD*%
D17*
%TO.C,C12*%
X83937500Y-129000000D03*
X81862500Y-129000000D03*
%TD*%
D25*
%TO.C,D19*%
X153400000Y-131052116D03*
X150200000Y-131052116D03*
X150200000Y-135952116D03*
X153400000Y-135952116D03*
%TD*%
D12*
%TO.C,R14*%
X96450000Y-65400000D03*
X96450000Y-63400000D03*
%TD*%
D14*
%TO.C,R5*%
X101600000Y-63400000D03*
X101600000Y-65400000D03*
%TD*%
D25*
%TO.C,D5*%
X119733333Y-72650423D03*
X116533333Y-72650423D03*
X116533333Y-77550423D03*
X119733333Y-77550423D03*
%TD*%
%TO.C,D4*%
X113733333Y-72650423D03*
X110533333Y-72650423D03*
X110533333Y-77550423D03*
X113733333Y-77550423D03*
%TD*%
%TO.C,D8*%
X164233333Y-101851270D03*
X161033333Y-101851270D03*
X161033333Y-106751270D03*
X164233333Y-106751270D03*
%TD*%
D24*
%TO.C,R29*%
X108700000Y-141000000D03*
X110700000Y-141000000D03*
%TD*%
D21*
%TO.C,C27*%
X158050000Y-110962500D03*
X158050000Y-113037500D03*
%TD*%
D16*
%TO.C,LD6*%
X76150000Y-101775000D03*
X76150000Y-103825000D03*
%TD*%
D26*
%TO.C,C60*%
X144650000Y-126737500D03*
X144650000Y-124662500D03*
%TD*%
D27*
%TO.C,Q2*%
X103600000Y-77937500D03*
X105500000Y-77937500D03*
X104550000Y-76062500D03*
%TD*%
D25*
%TO.C,D2*%
X80066666Y-72650423D03*
X76866666Y-72650423D03*
X76866666Y-77550423D03*
X80066666Y-77550423D03*
%TD*%
D14*
%TO.C,R8*%
X90850000Y-76600000D03*
X90850000Y-78600000D03*
%TD*%
D28*
%TO.C,R15*%
X153750000Y-88900000D03*
X151750000Y-88900000D03*
%TD*%
D29*
%TO.C,Q1*%
X160300000Y-69050000D03*
X160300000Y-66750000D03*
D30*
X154000000Y-66750000D03*
D29*
X160300000Y-64450000D03*
%TD*%
D25*
%TO.C,D18*%
X147400000Y-131052116D03*
X144200000Y-131052116D03*
X144200000Y-135952116D03*
X147400000Y-135952116D03*
%TD*%
D28*
%TO.C,R19*%
X106250000Y-88300000D03*
X104250000Y-88300000D03*
%TD*%
D31*
%TO.C,U6*%
X99485000Y-84750000D03*
X98850000Y-84750000D03*
X98215000Y-84750000D03*
X97580000Y-84750000D03*
X96945000Y-84750000D03*
X96310000Y-84750000D03*
X95675000Y-84750000D03*
X95040000Y-84750000D03*
X95040000Y-89950000D03*
X95675000Y-89950000D03*
X96310000Y-89950000D03*
X96945000Y-89950000D03*
X97580000Y-89950000D03*
X98215000Y-89950000D03*
X98850000Y-89950000D03*
X99485000Y-89950000D03*
%TD*%
D14*
%TO.C,R10*%
X110600000Y-63400000D03*
X110600000Y-65400000D03*
%TD*%
D32*
%TO.C,U2*%
X121325000Y-63295000D03*
X121325000Y-64565000D03*
X121325000Y-65835000D03*
X121325000Y-67105000D03*
X126275000Y-67105000D03*
X126275000Y-65835000D03*
X126275000Y-64565000D03*
X126275000Y-63295000D03*
%TD*%
D24*
%TO.C,R4*%
X145250000Y-63450000D03*
X147250000Y-63450000D03*
%TD*%
%TO.C,R24*%
X88850000Y-85700000D03*
X90850000Y-85700000D03*
%TD*%
D17*
%TO.C,C61*%
X141187500Y-132200000D03*
X139112500Y-132200000D03*
%TD*%
D21*
%TO.C,C23*%
X77300000Y-63362500D03*
X77300000Y-65437500D03*
%TD*%
%TO.C,C44*%
X122800000Y-72625000D03*
X122800000Y-74700000D03*
%TD*%
D14*
%TO.C,R9*%
X106200000Y-63400000D03*
X106200000Y-65400000D03*
%TD*%
D24*
%TO.C,R11*%
X145250000Y-68100000D03*
X147250000Y-68100000D03*
%TD*%
D25*
%TO.C,D15*%
X86066666Y-131052116D03*
X82866666Y-131052116D03*
X82866666Y-135952116D03*
X86066666Y-135952116D03*
%TD*%
D28*
%TO.C,R22*%
X88550000Y-100800000D03*
X86550000Y-100800000D03*
%TD*%
D12*
%TO.C,R12*%
X127700000Y-78600000D03*
X127700000Y-76600000D03*
%TD*%
D33*
%TO.C,LD8*%
X108675000Y-145000000D03*
X110725000Y-145000000D03*
%TD*%
D17*
%TO.C,C15*%
X102387500Y-134300000D03*
X100312500Y-134300000D03*
%TD*%
D26*
%TO.C,C32*%
X85387500Y-85587500D03*
X85387500Y-83512500D03*
%TD*%
D28*
%TO.C,R17*%
X106250000Y-97500000D03*
X104250000Y-97500000D03*
%TD*%
D25*
%TO.C,D10*%
X130566666Y-101851270D03*
X127366666Y-101851270D03*
X127366666Y-106751270D03*
X130566666Y-106751270D03*
%TD*%
%TO.C,D7*%
X153400000Y-72650423D03*
X150200000Y-72650423D03*
X150200000Y-77550423D03*
X153400000Y-77550423D03*
%TD*%
D26*
%TO.C,C26*%
X132250000Y-78537500D03*
X132250000Y-76462500D03*
%TD*%
D25*
%TO.C,D12*%
X96900000Y-101851270D03*
X93700000Y-101851270D03*
X93700000Y-106751270D03*
X96900000Y-106751270D03*
%TD*%
D28*
%TO.C,R20*%
X106250000Y-83200000D03*
X104250000Y-83200000D03*
%TD*%
%TO.C,R21*%
X88450000Y-96800000D03*
X86450000Y-96800000D03*
%TD*%
D17*
%TO.C,C14*%
X97087500Y-134300000D03*
X95012500Y-134300000D03*
%TD*%
D25*
%TO.C,D3*%
X86066666Y-72650423D03*
X82866666Y-72650423D03*
X82866666Y-77550423D03*
X86066666Y-77550423D03*
%TD*%
D34*
%TO.C,U1*%
X86987500Y-111600000D03*
X86987500Y-112100000D03*
X86987500Y-112600000D03*
X86987500Y-113100000D03*
X86987500Y-113600000D03*
X86987500Y-114100000D03*
X86987500Y-114600000D03*
X86987500Y-115100000D03*
X86987500Y-115600000D03*
X86987500Y-116100000D03*
X86987500Y-116600000D03*
X86987500Y-117100000D03*
X86987500Y-117600000D03*
X86987500Y-118100000D03*
X86987500Y-118600000D03*
X86987500Y-119100000D03*
X86987500Y-119600000D03*
X86987500Y-120100000D03*
X86987500Y-120600000D03*
X86987500Y-121100000D03*
X86987500Y-121600000D03*
X86987500Y-122100000D03*
X86987500Y-122600000D03*
X86987500Y-123100000D03*
X86987500Y-123600000D03*
X86987500Y-124100000D03*
X86987500Y-124600000D03*
X86987500Y-125100000D03*
X86987500Y-125600000D03*
X86987500Y-126100000D03*
X86987500Y-126600000D03*
X86987500Y-127100000D03*
X86987500Y-127600000D03*
X86987500Y-128100000D03*
X86987500Y-128600000D03*
X86987500Y-129100000D03*
D35*
X88900000Y-131012500D03*
X89400000Y-131012500D03*
X89900000Y-131012500D03*
X90400000Y-131012500D03*
X90900000Y-131012500D03*
X91400000Y-131012500D03*
X91900000Y-131012500D03*
X92400000Y-131012500D03*
X92900000Y-131012500D03*
X93400000Y-131012500D03*
X93900000Y-131012500D03*
X94400000Y-131012500D03*
X94900000Y-131012500D03*
X95400000Y-131012500D03*
X95900000Y-131012500D03*
X96400000Y-131012500D03*
X96900000Y-131012500D03*
X97400000Y-131012500D03*
X97900000Y-131012500D03*
X98400000Y-131012500D03*
X98900000Y-131012500D03*
X99400000Y-131012500D03*
X99900000Y-131012500D03*
X100400000Y-131012500D03*
X100900000Y-131012500D03*
X101400000Y-131012500D03*
X101900000Y-131012500D03*
X102400000Y-131012500D03*
X102900000Y-131012500D03*
X103400000Y-131012500D03*
X103900000Y-131012500D03*
X104400000Y-131012500D03*
X104900000Y-131012500D03*
X105400000Y-131012500D03*
X105900000Y-131012500D03*
X106400000Y-131012500D03*
D34*
X108312500Y-129100000D03*
X108312500Y-128600000D03*
X108312500Y-128100000D03*
X108312500Y-127600000D03*
X108312500Y-127100000D03*
X108312500Y-126600000D03*
X108312500Y-126100000D03*
X108312500Y-125600000D03*
X108312500Y-125100000D03*
X108312500Y-124600000D03*
X108312500Y-124100000D03*
X108312500Y-123600000D03*
X108312500Y-123100000D03*
X108312500Y-122600000D03*
X108312500Y-122100000D03*
X108312500Y-121600000D03*
X108312500Y-121100000D03*
X108312500Y-120600000D03*
X108312500Y-120100000D03*
X108312500Y-119600000D03*
X108312500Y-119100000D03*
X108312500Y-118600000D03*
X108312500Y-118100000D03*
X108312500Y-117600000D03*
X108312500Y-117100000D03*
X108312500Y-116600000D03*
X108312500Y-116100000D03*
X108312500Y-115600000D03*
X108312500Y-115100000D03*
X108312500Y-114600000D03*
X108312500Y-114100000D03*
X108312500Y-113600000D03*
X108312500Y-113100000D03*
X108312500Y-112600000D03*
X108312500Y-112100000D03*
X108312500Y-111600000D03*
D35*
X106400000Y-109687500D03*
X105900000Y-109687500D03*
X105400000Y-109687500D03*
X104900000Y-109687500D03*
X104400000Y-109687500D03*
X103900000Y-109687500D03*
X103400000Y-109687500D03*
X102900000Y-109687500D03*
X102400000Y-109687500D03*
X101900000Y-109687500D03*
X101400000Y-109687500D03*
X100900000Y-109687500D03*
X100400000Y-109687500D03*
X99900000Y-109687500D03*
X99400000Y-109687500D03*
X98900000Y-109687500D03*
X98400000Y-109687500D03*
X97900000Y-109687500D03*
X97400000Y-109687500D03*
X96900000Y-109687500D03*
X96400000Y-109687500D03*
X95900000Y-109687500D03*
X95400000Y-109687500D03*
X94900000Y-109687500D03*
X94400000Y-109687500D03*
X93900000Y-109687500D03*
X93400000Y-109687500D03*
X92900000Y-109687500D03*
X92400000Y-109687500D03*
X91900000Y-109687500D03*
X91400000Y-109687500D03*
X90900000Y-109687500D03*
X90400000Y-109687500D03*
X89900000Y-109687500D03*
X89400000Y-109687500D03*
X88900000Y-109687500D03*
%TD*%
D15*
%TO.C,BTN2*%
X120100000Y-146080000D03*
X120100000Y-140920000D03*
X122100000Y-146080000D03*
X122100000Y-140920000D03*
%TD*%
D13*
%TO.C,C28*%
X149412500Y-104500000D03*
X151487500Y-104500000D03*
%TD*%
D25*
%TO.C,D11*%
X136566666Y-101851270D03*
X133366666Y-101851270D03*
X133366666Y-106751270D03*
X136566666Y-106751270D03*
%TD*%
D21*
%TO.C,C31*%
X85387500Y-88975000D03*
X85387500Y-91050000D03*
%TD*%
D25*
%TO.C,D17*%
X119733333Y-131052116D03*
X116533333Y-131052116D03*
X116533333Y-135952116D03*
X119733333Y-135952116D03*
%TD*%
D33*
%TO.C,LD4*%
X144625000Y-88800000D03*
X146675000Y-88800000D03*
%TD*%
D18*
%TO.C,LD2*%
X98075000Y-70000000D03*
X96025000Y-70000000D03*
%TD*%
D25*
%TO.C,D14*%
X80066666Y-131052116D03*
X76866666Y-131052116D03*
X76866666Y-135952116D03*
X80066666Y-135952116D03*
%TD*%
%TO.C,D13*%
X102900000Y-101851270D03*
X99700000Y-101851270D03*
X99700000Y-106751270D03*
X102900000Y-106751270D03*
%TD*%
D36*
%TO.C,BTN1*%
X109970000Y-103400000D03*
X115130000Y-103400000D03*
X109970000Y-105400000D03*
X115130000Y-105400000D03*
%TD*%
D13*
%TO.C,C21*%
X89512500Y-106850000D03*
X91587500Y-106850000D03*
%TD*%
D17*
%TO.C,C3*%
X78737500Y-115400000D03*
X76662500Y-115400000D03*
%TD*%
D33*
%TO.C,LD7*%
X136675000Y-144900000D03*
X138725000Y-144900000D03*
%TD*%
D25*
%TO.C,D16*%
X113733333Y-131052116D03*
X110533333Y-131052116D03*
X110533333Y-135952116D03*
X113733333Y-135952116D03*
%TD*%
D12*
%TO.C,R1*%
X120250000Y-112200000D03*
X120250000Y-110200000D03*
%TD*%
D24*
%TO.C,R28*%
X136700000Y-141000000D03*
X138700000Y-141000000D03*
%TD*%
D21*
%TO.C,C5*%
X112350000Y-117262500D03*
X112350000Y-119337500D03*
%TD*%
D17*
%TO.C,C13*%
X90937500Y-135450000D03*
X88862500Y-135450000D03*
%TD*%
D21*
%TO.C,C6*%
X115750000Y-117262500D03*
X115750000Y-119337500D03*
%TD*%
D28*
%TO.C,R18*%
X106250000Y-93000000D03*
X104250000Y-93000000D03*
%TD*%
D17*
%TO.C,C33*%
X97687500Y-94200000D03*
X95612500Y-94200000D03*
%TD*%
D26*
%TO.C,C11*%
X82300000Y-120537500D03*
X82300000Y-118462500D03*
%TD*%
D25*
%TO.C,D6*%
X147400000Y-72650423D03*
X144200000Y-72650423D03*
X144200000Y-77550423D03*
X147400000Y-77550423D03*
%TD*%
D24*
%TO.C,R30*%
X131350000Y-117200000D03*
X133350000Y-117200000D03*
%TD*%
%TO.C,R3*%
X81150000Y-123100000D03*
X83150000Y-123100000D03*
%TD*%
D13*
%TO.C,C63*%
X133150000Y-132200000D03*
X135225000Y-132200000D03*
%TD*%
D37*
%TO.C,F1*%
X75400000Y-70125000D03*
X75400000Y-68075000D03*
%TD*%
D21*
%TO.C,C25*%
X140050000Y-66162500D03*
X140050000Y-68237500D03*
%TD*%
D38*
%TO.C,U9*%
X139055000Y-122325000D03*
X137785000Y-122325000D03*
X136515000Y-122325000D03*
X135245000Y-122325000D03*
X135245000Y-127275000D03*
X136515000Y-127275000D03*
X137785000Y-127275000D03*
X139055000Y-127275000D03*
%TD*%
D24*
%TO.C,R32*%
X80350000Y-106900000D03*
X82350000Y-106900000D03*
%TD*%
D25*
%TO.C,D9*%
X170233333Y-101851270D03*
X167033333Y-101851270D03*
X167033333Y-106751270D03*
X170233333Y-106751270D03*
%TD*%
D24*
%TO.C,R31*%
X131350000Y-120300000D03*
X133350000Y-120300000D03*
%TD*%
M02*
