Mouser,Qty,Reference,Value
USB4085-GF-A,1,J2,USB_C_Receptacle_USB2.0
TUSB320IRWBR,1,U3,TUSB320I
TNPW0805909KBEEN,1,R8,909k
T491V157K010AT,2,"C62,C64",150uF
STM32F746ZGT6,1,U1,STM32F746ZGT6
SMD0805B100TFT,1,F1,Polyfuse
RLC73PH2AR10FTDF,1,R4,0.1R
445I23L12M00000,1,Y1,16 MHz
PT10MV10-103A2020-PM-S,2,"RV1,RV2",10k
PMV52ENER,1,Q2,AO3400A
CR0805-FX-1002ELF,11,"R1,R2,R16,R17,R18,R19,R20,R26,R27,R32,R33",10k
CR0805-JW-204ELF ,2,"R9,R10",200k
CR0805-JW-471ELF,4,"R21,R22,R28,R29",470R
HSMM-C170,3,"LD3,LD7,LD8",GREEN
CR0805-JW-104ELF,4,"R12,R13,R30,R31",100k
CR0805AJ/-000EAS,1,R3,0R
MAX4789EUK+T,1,U5,MAX4789EUK+T
LTC1153CS8#TRPBF,1,U2,LTC1153
LM3526M-L/NOPB,1,U9,USB Power Switch
SM0805RC,1,LD2,RED
SM0805UOC,4,"LD1,LD4,LD5,LD6",ORANGE
IS42S16800F-7TLI,1,U7,IS42S16800F
FT230XS-R,1,U6,FT230XS
EVQP2T02M,3,"BTN1,BTN2,BTN3",SW_Push
CR0805-JW-221ELF,1,R25,220R
CRCW080527R0FKEA,2,"R23,R24",27R
CRCW08051K00JNEA,5,"R5,R6,R7,R11,R15",1k
CL21B225KPFNNNE,2,"C9,C10",2.2uF
CC0805MRX7R9BB103,1,C25,0.01uF
CC0805KKX7R6BB105,4,"C6,C7,C23,C28",1uF
C0805C470J5GACTU,2,"C31,C32",47pF
C0805C100J3HACTU,2,"C2,C3",10p
BUK7880-55A/CUX,1,Q1,BUK7880-55A
BD33FC0FP-E2,1,U4,BD33FC0FP
AC0805JR-074K7L,1,R14,4k7
CSQG703BP,1,LS1,Speaker
90120-0765,1,J1,ST_LINK_SWD
67643-0910,2,"J8,J9",USB_A
200528-0060,6,"J3,J4,J5,J6,J7,J10",FFC Connector
1N4148W-E3-18,1,D1,1N4148W
C0805C475K4RACAUTO,2,"C22,C27",4.7uF
0805B334K250CT,1,C26,0.33uF
885012207016,68,"C1,C4,C5,C8,C11,C12,C13,C14,C15,C16,C17,C18,C19,C20,C21,C24,C29,C30,C33,C34,C35,C36,C37,C38,C39,C40,C41,C42,C43,C44,C45,C46,C47,C48,C49,C50,C51,C52,C53,C54,C55,C56,C57,C58,C59,C60,C61,C63",100nF
JPEPL5012NE,2,SHx,Pot. Shafts
10-06-A-0050-C-4-08-4-T,5,FFCx,FFC Cables
